…
### Split by nesting

Nesting can be used to support more complex group-wise computation. When
you nest data, the non-grouping variables are packaged into
group-specific data frames that are held in a special variable called a
list-column. I didn’t use `kable()` since I wanted to show the structure
of list-column.

``` r
(gap_nested <- gapminder %>% 
  group_by(continent, country) %>% 
  nest()) # nest the data by country and continent
```

    ## # A tibble: 142 x 3
    ##    continent country     data             
    ##    <fct>     <fct>       <list>           
    ##  1 Asia      Afghanistan <tibble [12 x 4]>
    ##  2 Europe    Albania     <tibble [12 x 4]>
    ##  3 Africa    Algeria     <tibble [12 x 4]>
    ##  4 Africa    Angola      <tibble [12 x 4]>
    ##  5 Americas  Argentina   <tibble [12 x 4]>
    ##  6 Oceania   Australia   <tibble [12 x 4]>
    ##  7 Europe    Austria     <tibble [12 x 4]>
    ##  8 Asia      Bahrain     <tibble [12 x 4]>
    ##  9 Asia      Bangladesh  <tibble [12 x 4]>
    ## 10 Europe    Belgium     <tibble [12 x 4]>
    ## # ... with 132 more rows
…
Use `purrr::map()` to apply the fitting function `le_vs_yr()` to all the
countries and store the results into new list-column with `mutate()`.

``` r
(gap_res <- gap_nested %>% 
  mutate(res = map(data, le_vs_yr)) %>% # fit the model with every country
  select(continent, country, res)) 
```

    ## # A tibble: 142 x 3
    ##    continent country     res       
    ##    <fct>     <fct>       <list>    
    ##  1 Asia      Afghanistan <dbl [12]>
    ##  2 Europe    Albania     <dbl [12]>
    ##  3 Africa    Algeria     <dbl [12]>
    ##  4 Africa    Angola      <dbl [12]>
    ##  5 Americas  Argentina   <dbl [12]>
    ##  6 Oceania   Australia   <dbl [12]>
    ##  7 Europe    Austria     <dbl [12]>
    ##  8 Asia      Bahrain     <dbl [12]>
    ##  9 Asia      Bangladesh  <dbl [12]>
    ## 10 Europe    Belgium     <dbl [12]>
    ## # ... with 132 more rows
…
